{
  "apps": [{
    "name": "kinect-node",
    "script": "../../server.js",
    "env": {
      "NODE_ENV": "development",
      "MONGO_URL": "mongodb://localhost/kinectnode"
    },
    "env_production": {
      "NODE_ENV": "production",
      "MONGO_URL": "mongodb://localhost/kinectnode",
      "railsAppURL": "http://13.232.155.114"
    }
  }]
}
